[
    {
        "paymentType": "CREDITO",
        "petName": "Judite",
        "petRace": "Pug",
        "serviceName": "Banho",
        "serviceType": "ATENDENTE",
        "professionalName": "Julia",
        "clientName": "Gustavo",
        "executionDate": 111111111111,
        "value": 35.0,
        "rate": 4,
        "generatedPataz": 10
    },
    {
        "paymentType": "DEBITO",
        "petName": "Totó",
        "petRace": "Dog Alemão",
        "serviceName": "Tosa",
        "serviceType": "ATENDENTE",
        "professionalName": "Julia",
        "clientName": "Joao",
        "executionDate": 99999999999,
        "value": 38,
        "rate": 5,
        "generatedPataz": 20
    }
]